{
  "quote": {
    "created": "2017-12-13T11:12:27.9592521+00:00",
    "start": "2017-12-13T11:12:27.9592521+00:00",
    "distanceKm": 3.1,
    "fee": {
      "cost": 1.0,
      "costCents": 100
    },
    "pickup": {
      "time": {
        "average": "2017-12-13T11:12:27.9592521+00:00",
        "earliest": "2017-12-13T11:12:27.9592521+00:00",
        "latest": "2017-12-13T11:12:27.9592521+00:00"
      },
      "address": "sample string 1"
    },
    "dropoff": {
      "time": {
        "average": "2017-12-13T11:12:27.9592521+00:00",
        "earliest": "2017-12-13T11:12:27.9592521+00:00",
        "latest": "2017-12-13T11:12:27.9592521+00:00"
      },
      "address": "sample string 1"
    }
  },
  "delivery": {
    "created": "2017-12-13T11:12:27.9592521+00:00",
    "id": "2fd8a3e3-0648-4539-997d-ada36e98c169",
    "reference": "sample string 3",
    "pickupLocation": {
      "name": "sample string 1",
      "address": "sample string 2",
      "phone": "sample string 3",
      "postcode": "sample string 4",
      "suburb": "sample string 5"
    },
    "dropoffLocation": {
      "name": "sample string 1",
      "address": "sample string 2",
      "phone": "sample string 3",
      "postcode": "sample string 4",
      "suburb": "sample string 5"
    },
    "lastUpdated": "2017-12-13T11:12:27.9602521+00:00",
    "currentStatus": "sample string 5",
    "driver": {
      "identifier": "c4cbecd4-fe3c-468b-b83a-d6fc05699e22",
      "name": "sample string 2",
      "phone": "sample string 3",
      "photoUrl": "sample string 4",
      "email": "sample string 5"
    },
    "items": [
      "sample string 1",
      "sample string 2"
    ],
    "pickupTime": "2017-12-13T11:12:27.9602521+00:00",
    "dropoffTime": {
      "earliestTime": "2017-12-13T11:12:27.9612535+00:00",
      "latestTime": "2017-12-13T11:12:27.9612535+00:00"
    },
    "deliveryInstructions": "sample string 6",
    "customerReference": "sample string 7",
    "trackingUrls": {
      "www": "sample string 1",
      "api": "sample string 2"
    },
    "proofOfDelivery": {
      "signatureUrl": "sample string 1"
    },
    "driverTip": 8.0,
    "deliveryFee": 1.0,
    "estimatedDistance": {
      "kilometres": 1.1,
      "miles": 2.1
    }
  },
  "request": {
    "reference": "sample string 1",
    "deliveryInstructions": "sample string 2",
    "itemsRequirePurchase": false,
    "items": [
      {
        "quantity": 1,
        "sku": "sample string 2",
        "description": "sample string 3",
        "price": 4.0
      },
      {
        "quantity": 1,
        "sku": "sample string 2",
        "description": "sample string 3",
        "price": 4.0
      }
    ],
    "pickupTime": "2017-12-13T11:12:27.9612535+00:00",
    "pickupDetail": {
      "name": "sample string 1",
      "phone": "sample string 2",
      "email": "sample string 3",
      "description": "sample string 4",
      "address": "sample string 5",
      "additionalAddressDetails": {
        "stateProvince": "sample string 1",
        "country": "sample string 2",
        "suburbLocality": "sample string 3",
        "postcode": "sample string 4",
        "latitude": 5.1,
        "longitude": 6.1
      }
    },
    "dropoffWindow": {
      "earliestTime": "2017-12-13T11:12:27.9612535+00:00",
      "latestTime": "2017-12-13T11:12:27.9612535+00:00"
    },
    "dropoffDetail": {
      "name": "sample string 1",
      "phone": "sample string 2",
      "email": "sample string 3",
      "description": "sample string 4",
      "address": "sample string 5",
      "additionalAddressDetails": {
        "stateProvince": "sample string 1",
        "country": "sample string 2",
        "suburbLocality": "sample string 3",
        "postcode": "sample string 4",
        "latitude": 5.1,
        "longitude": 6.1
      }
    },
    "customerFee": 4.0,
    "customerReference": "sample string 5",
    "tax": 1.0,
    "taxInclusivePrice": false,
    "tip": 1.0,
    "driverFeePercentage": 6.0,
    "driverMatchCode": "sample string 7",
    "deliverySequence": 8,
    "webhooks": [
      {
        "eventName": "sample string 1",
        "url": "sample string 2"
      },
      {
        "eventName": "sample string 1",
        "url": "sample string 2"
      }
    ],
    "template": "sample string 9"
  }
}
